{
    "Name": "OP50",
    "RealTime": {
        "DO": {
            "Lib": {
                "Address": ""
            },
            "Threshold": {
                "Address": ""
            },
            "Target": {
                "Address": ""
            },
            "Date": {
                "Address": ""
            },
            "Value": {
                "Address": ""
            },
            "LastValueOffset": {
                "OffestValue": {
                    "Address": ""
                },
                "OffestThreshold": {
                    "Address": ""
                },
                "OffestTarget": {
                    "Address": ""
                }
            }
        },
        "TP": {
            "Lib": {
                "Address": ""
            },
            "Threshold": {
                "Address": ""
            },
            "Target": {
                "Address": ""
            },
            "Date": {
                "Address": ""
            },
            "Value": {
                "Address": ""
            },
            "LastValueOffset": {
                "OffestValue": {
                    "Address": ""
                },
                "OffestThreshold": {
                    "Address": ""
                },
                "OffestTarget": {
                    "Address": ""
                }
            }
        },
        "TQ": {
            "Lib": {
                "Address": ""
            },
            "Threshold": {
                "Address": ""
            },
            "Target": {
                "Address": ""
            },
            "Date": {
                "Address": ""
            },
            "Value": {
                "Address": ""
            },
            "LastValueOffset": {
                "OffestValue": {
                    "Address": ""
                },
                "OffestThreshold": {
                    "Address": ""
                },
                "OffestTarget": {
                    "Address": ""
                }
            }
        },
        "TRS": {
            "Lib": {
                "Address": ""
            },
            "Threshold": {
                "Address": ""
            },
            "Target": {
                "Address": ""
            },
            "Date": {
                "Address": ""
            },
            "Value": {
                "Address": ""
            },
            "LastValueOffset": {
                "OffestValue": {
                    "Address": ""
                },
                "OffestThreshold": {
                    "Address": ""
                },
                "OffestTarget": {
                    "Address": ""
                }
            }
        },
        "GoodUnitsNumber": {
            "Lib": {
                "Address": ""
            },
            "Threshold": {
                "Address": ""
            },
            "Target": {
                "Address": ""
            },
            "Date": {
                "Address": ""
            },
            "Value": {
                "Address": ""
            },
            "LastValueOffset": {
                "OffestValue": {
                    "Address": ""
                },
                "OffestThreshold": {
                    "Address": ""
                },
                "OffestTarget": {
                    "Address": ""
                }
            }
        },
        "LineRun": {
            "Lib": {
                "Address": ""
            },
            "Threshold": {
                "Address": ""
            },
            "Target": {
                "Address": ""
            },
            "Date": {
                "Address": ""
            },
            "Value": {
                "Address": ""
            },
            "LastValueOffset": {
                "OffestValue": {
                    "Address": ""
                },
                "OffestThreshold": {
                    "Address": ""
                },
                "OffestTarget": {
                    "Address": ""
                }
            }
        },
        "LineDefaut": {
            "Lib": {
                "Address": ""
            },
            "Threshold": {
                "Address": ""
            },
            "Target": {
                "Address": ""
            },
            "Date": {
                "Address": ""
            },
            "Value": {
                "Address": ""
            },
            "LastValueOffset": {
                "OffestValue": {
                    "Address": ""
                },
                "OffestThreshold": {
                    "Address": ""
                },
                "OffestTarget": {
                    "Address": ""
                }
            }
        }
    },
    "DayTime": {
        "DO": {
            "Lib": {
                "Address": ""
            },
            "Threshold": {
                "Address": ""
            },
            "Target": {
                "Address": ""
            },
            "Date": {
                "Address": ""
            },
            "Value": {
                "Address": ""
            },
            "LastValueOffset": {
                "OffestValue": {
                    "Address": ""
                },
                "OffestThreshold": {
                    "Address": ""
                },
                "OffestTarget": {
                    "Address": ""
                }
            }
        },
        "TP": {
            "Lib": {
                "Address": ""
            },
            "Threshold": {
                "Address": ""
            },
            "Target": {
                "Address": ""
            },
            "Date": {
                "Address": ""
            },
            "Value": {
                "Address": ""
            },
            "LastValueOffset": {
                "OffestValue": {
                    "Address": ""
                },
                "OffestThreshold": {
                    "Address": ""
                },
                "OffestTarget": {
                    "Address": ""
                }
            }
        },
        "TQ": {
            "Lib": {
                "Address": ""
            },
            "Threshold": {
                "Address": ""
            },
            "Target": {
                "Address": ""
            },
            "Date": {
                "Address": ""
            },
            "Value": {
                "Address": ""
            },
            "LastValueOffset": {
                "OffestValue": {
                    "Address": ""
                },
                "OffestThreshold": {
                    "Address": ""
                },
                "OffestTarget": {
                    "Address": ""
                }
            }
        },
        "TRS": {
            "Lib": {
                "Address": ""
            },
            "Threshold": {
                "Address": ""
            },
            "Target": {
                "Address": ""
            },
            "Date": {
                "Address": ""
            },
            "Value": {
                "Address": ""
            },
            "LastValueOffset": {
                "OffestValue": {
                    "Address": ""
                },
                "OffestThreshold": {
                    "Address": ""
                },
                "OffestTarget": {
                    "Address": ""
                }
            }
        },
        "GoodUnitsNumber": {
            "Lib": {
                "Address": ""
            },
            "Threshold": {
                "Address": ""
            },
            "Target": {
                "Address": ""
            },
            "Date": {
                "Address": ""
            },
            "Value": {
                "Address": ""
            },
            "LastValueOffset": {
                "OffestValue": {
                    "Address": ""
                },
                "OffestThreshold": {
                    "Address": ""
                },
                "OffestTarget": {
                    "Address": ""
                }
            }
        },
        "LineRun": {
            "Lib": {
                "Address": ""
            },
            "Threshold": {
                "Address": ""
            },
            "Target": {
                "Address": ""
            },
            "Date": {
                "Address": ""
            },
            "Value": {
                "Address": ""
            },
            "LastValueOffset": {
                "OffestValue": {
                    "Address": ""
                },
                "OffestThreshold": {
                    "Address": ""
                },
                "OffestTarget": {
                    "Address": ""
                }
            }
        },
        "LineDefaut": {
            "Lib": {
                "Address": ""
            },
            "Threshold": {
                "Address": ""
            },
            "Target": {
                "Address": ""
            },
            "Date": {
                "Address": ""
            },
            "Value": {
                "Address": ""
            },
            "LastValueOffset": {
                "OffestValue": {
                    "Address": ""
                },
                "OffestThreshold": {
                    "Address": ""
                },
                "OffestTarget": {
                    "Address": ""
                }
            }
        }
    },
    "ListStats": [
        {
            "Name": "STAT1",
            "CodeStat": "",
            "CodeSample": "",
            "CodeGraph": ""
        },
        {
            "Name": "STAT2",
            "CodeStat": "",
            "CodeSample": "",
            "CodeGraph": ""
        },
        {
            "Name": "STAT3",
            "CodeStat": "",
            "CodeSample": "",
            "CodeGraph": ""
        },
        {
            "Name": "STAT4",
            "CodeStat": "",
            "CodeSample": "",
            "CodeGraph": ""
        },
        {
            "Name": "STAT5",
            "CodeStat": "",
            "CodeSample": "",
            "CodeGraph": ""
        },
        {
            "Name": "STAT6",
            "CodeStat": "",
            "CodeSample": "",
            "CodeGraph": ""
        },
        {
            "Name": "STAT7",
            "CodeStat": "",
            "CodeSample": "",
            "CodeGraph": ""
        },
        {
            "Name": "STAT8",
            "CodeStat": "",
            "CodeSample": "",
            "CodeGraph": ""
        },
        {
            "Name": "STAT9",
            "CodeStat": "",
            "CodeSample": "",
            "CodeGraph": ""
        }
    ],
    "Spawn": {
        "CamPosOrig": {
            "x": 0.0,
            "y": 0.0,
            "z": 0.0
        },
        "CamRotaOrig": {
            "x": 0.0,
            "y": 0.0,
            "z": 0.0
        }
    }
}