{
    "Web": {
        "MainUrl": "https://perfectimprove.perfectindustry.eu/api/santaclara?",
        "ProxyUrl": "http://SERV-52:8080/array.dll?Get.Routing.Script",
        "LoginUser": "santaclara",
        "LoginPass": "OracleSanta@33"
    },
    "Spawns": [
        {
            "Resolution": "4:3",
            "CamPosOrig": {
                "x": 0.0,
                "y": 0.0,
                "z": 0.0
            },
            "CamRotaOrig": {
                "x": 0.0,
                "y": 0.0,
                "z": 0.0
            },
            "fResolution": 1.3333333730697632,
            "fieldOfView": 86.0
        },
        {
            "Resolution": "16:9",
            "CamPosOrig": {
                "x": 0.0,
                "y": 0.0,
                "z": 0.0
            },
            "CamRotaOrig": {
                "x": 0.0,
                "y": 0.0,
                "z": 0.0
            },
            "fResolution": 1.7777777910232545,
            "fieldOfView": 86.0
        },
        {
            "Resolution": "16:10",
            "CamPosOrig": {
                "x": 0.0,
                "y": 0.0,
                "z": 0.0
            },
            "CamRotaOrig": {
                "x": 0.0,
                "y": 0.0,
                "z": 0.0
            },
            "fResolution": 1.600000023841858,
            "fieldOfView": 86.0
        },
        {
            "Resolution": "3:2",
            "CamPosOrig": {
                "x": 0.0,
                "y": 0.0,
                "z": 0.0
            },
            "CamRotaOrig": {
                "x": 0.0,
                "y": 0.0,
                "z": 0.0
            },
            "fResolution": 1.5,
            "fieldOfView": 86.0
        },
        {
            "Resolution": "5:4",
            "CamPosOrig": {
                "x": 0.0,
                "y": 0.0,
                "z": 0.0
            },
            "CamRotaOrig": {
                "x": 0.0,
                "y": 0.0,
                "z": 0.0
            },
            "fResolution": 1.25,
            "fieldOfView": 86.0
        }
    ],
    "Area": "Usine",
    "SlideShowActivate": true
}